From Longer and Wider, We Stand on Guard for Thee
…
Attempt 1

repmes %>% pivot_longer(contains("_"),
                        names_to=c("time", "var"),
                        names_sep="_"
                         )

## # A tibble: 108 x 5
##    id    treatment time  var   value
##    <chr> <chr>     <chr> <chr> <dbl>
##  1 A.1   A         pre   y         3
##  2 A.1   A         post  y        13
##  3 A.1   A         fu    y         9
##  4 A.1   A         pre   z         0
##  5 A.1   A         post  z         0
##  6 A.1   A         fu    z         9
##  7 A.2   A         pre   y         0
##  8 A.2   A         post  y        14
##  9 A.2   A         fu    y        10
## 10 A.2   A         pre   z         6
## #  with 98 more rows

Attempt 2

repmes %>% pivot_longer(contains("_"),
                        names_to=c("time", ".value"),
                        names_sep="_"
                        ) -> repmes3
repmes3

## # A tibble: 54 x 5
##    id    treatment time      y     z
##    <chr> <chr>     <chr> <dbl> <dbl>
##  1 A.1   A         pre       3     0
##  2 A.1   A         post     13     0
##  3 A.1   A         fu        9     9
##  4 A.2   A         pre       0     6
##  5 A.2   A         post     14     6
##  6 A.2   A         fu       10     3
##  7 A.3   A         pre       4     8
##  8 A.3   A         post      6     2
##  9 A.3   A         fu       17     6
## 10 A.4   A         pre       7     7
## #  with 44 more rows
…
